
 			material aruco_tag_8
 			{
 				technique
 				{
 				pass
 				{
 					texture_unit
 					{
 					// Relative to the location of the material script
 					texture ../textures/aruco_marker_8.png
 					// Repeat the texture over the surface (4 per face)
 					scale 1 1
 					}
 				}
 				}
 			}
